,100001, fatanddum*jokes about my depression but nobody knew I was joking so the vibe changed really fast and everyone‚Äôs feeling really awkward*,1,prediction
17,100018.0, https://open.spotify.com/user/12155551895/playlist/60JRrnWoijbxpLDTwTKU7T?si=iAIxSLHOT8CsWWgk3hwRaA¬†‚Ä¶ I wanted to reach out to those who are going through #depression #Anxiety #suicidal thoughts #mental illness #nervousbreakdown  I pray you find #peace and #hope,1,1
36,100037.0,-cuddles depression-,1,1
48,100049.0,"... it quantifies regular human emotions and treats them like mental illnesses, in his words ""you could have your son die today and be diagnosed with depression the following morning"" which yeah, you know that this example happen when in reality your kid just died of course....",1,1
76,100077.0,"‚Ä¢ depression and sadness is different, so i thought im still in sadness zone.",1,1
202,100203.0,"""The evidence at this point is pretty strong that ketamine has a rapid effect at reducing depression,"" says Columbia's Grunebaum.",1,1
225,100226.0,„Äé„Åº„Åè„ÅØ„Å´„Çì„Åí„Çì„Äè,1,1
254,100255.0,[ RECHERCHE PSY],1,1
308,100309.0,@GordonRamsay  what do you think of my depression meal? Its microwaved hotdogs with mexical blend cheese and ketchup.  pic.twitter.com/ynWEk4aiv0,1,1
445,100446.0,"#Depression and #suicide are not problems isolated to medical professionals, but doctors do have the highest suicide rates when compared to people in other professions.",1,1
522,100523.0,#MyMentalHealthIn3Words  Extreme crippling depression,1,1
547,100548.0,#NewProfilePic even tho I'm on a depression and anxiety-fueled hiatus! :),1,1
661,100662.0,1st draft on the new one. Done ‚úÖ. 8 days from idea conception to 130 pages. Now to edit and second guess myself into depression.  pic.twitter.com/FyXrEn3J0Z,1,1
767,100768.0,A glance at the surface elements of this argument sent me into a lovecraft-esque pit of existential depression,1,1
782,100783.0,A lot of the dark humour I laugh about relates to my life and I‚Äôm private so when people get upset with me I just let them rant... I know why I‚Äôm laughing at a certain joke and that‚Äôs all that matters. I‚Äôm laughing at my encounter with this issue e.g depression etc,1,1
883,100884.0,"After not going to my stats class for a month (not joking about this depression)  I went to talk to the professor and in real life said ""I have returned from the dead and would like to speak with you""",1,1
904,100905.0,ah yes. just eliminate depression  pic.twitter.com/aZ84m3VaSe,1,1
925,100926.0,Alhamdulillah another mission birthday advance surprise done. Happy to see your crying + smile üòä,1,1
935,100936.0,"Alia Bhatt breaks down, talking about sister's battle with depression  https://gn24.ae/9090f516375a000¬†",1,1
951,100952.0,Alia Bhatt recently attended ‚ÄòWe The Women' event held in Mumbai and broke down the moment she started talking about her elder sister Shaheen Bhatt's battle with depression.,1,1
960,100961.0,All i‚Äôve been thinking about today is going home n getting into my pajamas ... the seasonal depression mixed w regular depression is real,1,1
963,100964.0,All na Depression  https://twitter.com/AnaLaughh/status/1201399446279540736¬†‚Ä¶,1,1
1022,101023.0,am I just depression‚Äôs trophy wife?,1,1
1312,101313.0,"Been sober for about a month too, been feeling pretty good. Especially with seasonal depression out kicking everyones asses, its nice to have this edge.",1,1
1315,101316.0,"Before clicking on ""Meet the Depressed"" I thought it was some sort of online awareness campaign for seasonal depression.",1,1
1395,101396.0,Black Mothers Get Less Treatment For Their Postpartum Depression  https://www.npr.org/sections/health-shots/2019/11/29/760231688/black-mothers-get-less-treatment-for-their-postpartum-depression?fbclid=IwAR0PtVLyApnDcp5E6BeAZlNX_oUU6uPvrTyWmDQKtdPLYk_QYslhnkQJUm4¬†‚Ä¶,1,1
1544,101545.0,CANNABIDIOL OR CBD IS A NATURAL COMPOUND WHICH PROVIDE POTENTIAL HEALTH BENEFITS INCLUDING A TREATMENT FOR DEPRESSION AND ANXIETY.,1,1
1546,101547.0,Cannot wait to peak during the roaring 20s and it all to come crashing down in the 30s with the next Great Depression!,1,1
1552,101553.0,Cause my depression to come back I need call for a ride,1,1
1634,101635.0,Comparing your lives with other people‚Äôs lives is a recipe for depression. Just do you & see where you end up. Forget everyone else. God I need a drink rn so bad,1,1
1676,101677.0,Cummins Maxi dono KXIP jaayenge,1,1
1732,101733.0,"Das kommt leider davon, dass W√∂rter wie Depression und Traurigkeit viel zu inflation√§r genutzt werden. Depression ist das Gegenteil von Traurigkeit. Es ist der Moment, wo man merkt, dass deine ‚Äûheile Welt‚Äú auf dich scheisst. Deshalb werden Menschen wie ich nicht ernstgenommen.",1,1
1782,101783.0,deep depression,1,1
1793,101794.0,denying your heart‚Äôs true desire = deep depression,1,1
1924,101925.0,Depression can have no symptoms. Spread awareness to help make the world happier!,1,1
1930,101931.0,"Depression cannot imagine a future. When depressed, changing your circumstances feels impossible... many of us experiencing a sort of cultural depression",1,1
1974,101975.0,Depression fucking sucks man,1,1
1976,101977.0,Depression fuels creativity. Does it not? #Hemmingway #Poe #Salinger #AgathaChristie #MarkTwain #CharlesDickens #WilliamFaulkner #KurtVonnegut,1,1
1989,101990.0,"Depression has no face, can be anyone  https://twitter.com/SouthINDGoogly/status/1201509204386705408¬†‚Ä¶",1,1
1995,101996.0,Depression hits different late at night when you're all alone with no snacks to drown out your feelings.,1,1
2007,102008.0,Depression hitting like a mf tonight lol,1,1
2116,102117.0,Depression is not easy.,1,1
2228,102229.0,Depression my old friend.... we meet again,1,1
2232,102233.0,Depression nap,1,1
2295,102296.0,depression take a toll on you dead ass,1,1
2298,102299.0,depression town baybeeeeee,1,1
2332,102333.0,"Depression, Anxiety, Loneliness, Sadness, Emptiness is that all GOD? any worse? just kill me!",1,1
2384,102385.0,"Despite loving life, depression is soul & life crushing. It destroys folks who used to be strong, full of love & life, folks with former careers & achievements, & is like having the carpet beneath your feet pulled out from underneath you & being weighted down so heavily...",1,1
2454,102455.0,Do ya ever think about how cuffing season lining up with peak seasonal depression generates unhealthy overly dependent relationships or am I just tired,1,1
2629,102630.0,"Ever since the Russian Orthodox Church adopted the bizarre American evangelical preaching culture, priest Dmitry Smirnov has been at the forefront of the trend. Here he says AIDS is the result of stress and depression. He is Russia‚Äôs chief ortho-punk.  https://twitter.com/stalingulag/status/1201409597577281536¬†‚Ä¶",1,1
2645,102646.0,"Everybody keeps asking me what I do to lose weight, all it takes is a little depression blended with stress and there ya go! No need for a gym membership üëçüèΩ",1,1
2706,102707.0,"Fast Porn To Help You Sleep - ASMR For Anxiety, Depression RP",1,1
2753,102754.0,"Find out what makes you happy and do that often, to stop depression.",1,1
2849,102850.0,Fucking health saver.,1,1
2858,102859.0,Gaining New Traction,1,1
2922,102923.0,Going to and then leaving work in the dark is what fuels my seasonal depression,1,1
3115,103116.0,"Heartiest congratulations madam finance minister. What about common public who is in the grip of recession and appears the depression will soon  http://start.no¬† money, no sell, no purchase, people are suffering at large. Can your economist see this?",1,1
3171,103172.0,"Heres a great tool for dealing with anxiety, depression and general negative thinking which can create self sabotage and undesired feelings/outcomes.",1,1
3172,103173.0,Hes in the deepest level of depression all because he never wanted any of this ü•∫,1,1
3211,103212.0,"Hi, depression isn't fun. That's all.",1,1
3269,103270.0,How can u get over depression,1,1
3312,103313.0,how much art supplies to i have to buy to cure my depression,1,1
3324,103325.0,How to cure nightly depression DIY,1,1
3379,103380.0,I agree that there‚Äôs much stress and depression out there.,1,1
3407,103408.0,I am anti social. No depression and no cafe,1,1
3452,103453.0,"I can remember the moment I first felt clarity after starting my antidepressants. Can‚Äôt pin down the month it happened or the dosage I was on, but I remember waking up one morning feeling like the ‚Äòdepression cobwebs‚Äô (as I affectionately call them) were clearing away",1,1
3494,103495.0,i did so much online shopping & i cannot wait for the packages to come in. Seasonal depression who?,1,1
3533,103534.0,I don't want somebody's son to go into depression.people hv bn talking a lot about mental health recently.,1,1
3569,103570.0,"I feel like there's definitely a lack of understanding of BPD. Like depression has basically been mentioned so often that people think that ""depressed"" is synonymous w sad. Which hurts in the talk about depression but it's more or less more normalized than BPD.",1,1
3582,103583.0,I feel you young Sis. Seasonal depression hits harder. I hate it. We gon support each other through this. DM me if you need to. üòò,1,1
3590,103591.0,I find it fascinating that someone who suffers from depression is writing about things that mean other people who suffer from depression are going to really fricking suffer. But that's the world we live in right.,1,1
3603,103604.0,i give myself anxiety attacks thinkon about if u died :( i would be on some midsommar depression,1,1
3604,103605.0,I got a promotion after a year of working and I'm now the first presenter for the company. I've dealt with my depression healthily and I've found love within myself and for myself.,1,1
3636,103637.0,I hate having post nut depression,1,1
3653,103654.0,I have a friend who on reinstating Cymbalta after pregnancy became severely Akathisiac - she is now on psych ward severely suicidal and on 7 different meds - they say she has agitated depression!!,1,1
3699,103700.0,"I have ptsd, depression, and suffer from regular panic attacks. Understanding that I don't need to be a super woman and remembering to take some time and effort for myself as a woman has helped me immensely.",1,1
3723,103724.0,"I honestly don‚Äôt know. I kept it together for the baby and the kids. Once I had the baby I fell apart, but kept enough of me together for the kids while I struggled through post natal depression, moving, raising a new born, studying, moving & relationship breakdown",1,1
3728,103729.0,I honesty don‚Äôt know where I‚Äôll be without Harry he has made such a huge impact in my life. I‚Äôve spent my life with sever depression and anxiety and in the past had suicidal thoughts and attempts. Harry has bought the light in my life I needed  #AdoreYou,1,1
3744,103745.0,I just learned that high function depression is a thing? I feel seen...?,1,1
3891,103892.0,I really thought I skipped the thanksgiving depression but grief has it‚Äôs own timetable... I miss my mom. :(,1,1
3901,103902.0,"I remember nearing the end of my 8th grade year and being like ""wow this year has been so bad I'm just gonna erase these memories"" and now i hardly remember a damn thing and I'm like wow my power, my chronic depression  https://twitter.com/queersocialism/status/1201337333917929474¬†‚Ä¶",1,1
4012,104013.0,"I thought it was people admitting to battling depression and sharing their stories. But no, it‚Äôs this a**hole. üò£",1,1
4025,104026.0,I totally agreed with an audience member who suggested that to be pessimistic about climate change could create a type of 'climate depression' when we need to be keeping people energetic.,1,1
4066,104067.0,I was in the middle of reading a really cute fluffy fic when all of a sudden a wave of depression hit me and I had a deep and emotional internal rant with myself but I only feel worse after acknowledging my fragile mental state‚Ä¶,1,1
4188,104189.0,I'm out here laying down with my doggo trying to avoid depression lol,1,1
4205,104206.0,I'm sorry that people don't fucking get that.,1,1
4226,104227.0,I've been struggling since Austin was born and I'm wondering could this be depression? #pbloggers #PND,1,1
4263,104264.0,I‚Äôm at the time frame where my timeline is showing me ‚ÄúWhat I missed‚Äù and the tweets for the game are priceless. You can tell where the shift was. Going from severe depression and ‚ÄúFire everyone‚Äù to ‚ÄúCleveland still sucks‚Äù and ‚Äúoverrated‚Äù in a matter of scrolls.,1,1
4304,104305.0,I‚Äôm so happy for no reason whatsoever....depression lost today ladies,1,1
4315,104316.0,I‚Äôm unemployed and have seasonal depression so it seems like the perfect time.,1,1
4363,104364.0,idk how to feel about anything anymore this shit sucks. depression during pregnancy is so serious,1,1
4403,104404.0,"If Messi doesn't win, the whole Messi FC will be into depression lol",1,1
4423,104424.0,"If we really need to raise awareness,we should raise it for DEPRESSION. If we really need a solution then it should be a RADICAL SOLUTION.",1,1
4457,104458.0,"If you're suffering from sadness or depression, don't ever forget that you have family and friends who love you dearly. If you fail to see the light, don't let the darkness win. Stay strong. Things will get better, I promise.",1,1
4474,104475.0,Ikr? Alissa is dealing with depression for years! Her low mental health let ppl take adventures on her over and over bc they know no matter what she will stay,1,1
4475,104476.0,Il commen√ßait √† tomber en d√©pression de pas l'avoir,1,1
4499,104500.0,im so sad now im going to have a post dream show depression again,1,1
4581,104582.0,"Instagram was considered the worst social media network for health and wellbeing, associated with higher levels of anxiety, depression, and loneliness. It is a platform perfectly suited to exacerbate school bullying and negative body image.  https://twitter.com/bettycjung/status/1201535800481067010¬†‚Ä¶",1,1
4630,104631.0,Isn't it the case that many depression therapies don't work for many people? Whereas other people will claim that the same therapies have saved their life.,1,1
4637,104638.0,It cures depression lol üòÇ  https://twitter.com/allyfknrager/status/1201374788528132096¬†‚Ä¶,1,1
4751,104752.0,It's seasonal depression time...got that spooky black on repeat,1,1
4769,104770.0,it‚Äôs called seasonal depression,1,1
4774,104775.0,It‚Äôs funny when you say ‚Äúsolid conclusion.‚Äú It makes me think of my diagnoses. I have asked a few times what my diagnoses are and haven‚Äôt gotten a clear responses! Obviously I was diagnosed autistic but I wanted to know about anxiety & depression. No real answer was given to me!,1,1
4784,104785.0,it‚Äôs not cool. he definitely made it worse on his family but depression man.. it doesn‚Äôt let you think right,1,1
4804,104805.0,it‚Äôs the depression.  pic.twitter.com/GgrWN3XXWJ,1,1
4822,104823.0,Its that seasonal depression time ü§ó,1,1
4853,104854.0,J'voulaid pas que √ßa parte en d√©pression sorry...,1,1
4888,104889.0,Je poste plus les loulous car je fais une grosse d√©pression. ,1,1
4895,104896.0,Je suis post d√©pression concert l√† je vous jure mais une puissance 100000000 ils m'ont trop hypper üò≠,1,1
5086,105087.0,Le gars va faire une d√©pression wsh  https://twitter.com/MeiRoTV/status/1201433971965476864¬†‚Ä¶,1,1
5134,105135.0,Levels of #Depression. there are levels of Depression...mild to severe... ,1,1
5190,105191.0,"ll I love when I get a nasty email from school saying, ""You didn't show up to this appointment, you must meet face to face to address this issue before you can come back.""  I have extreme anxiety, and depression. You make me wanna quit school all over a missed appointment.",1,1
5212,105213.0,Lol..  Mastering depression,1,1
5235,105236.0,Lordgod please help my grandmother suffer from depression!!!,1,1
5255,105256.0,loving kurapika is free serotonin but also free depression :/,1,1
5395,105396.0,me to my depression and anxiety: amigas por favor me deixem ter dias mais produtivos,1,1
5405,105406.0,me when my seasonal depression is Tis The Season(al) depression  pic.twitter.com/KnkOwQQUhM,1,1
5426,105427.0,me: mom can I get depression when I move out? ,1,1
5461,105462.0,"Mental health is physical health. And the continuing idea that things like depression and anxiety are somehow part of another non-physical world goes against science, and the experience of being ill. It also creates stigma. We need an end to health dualism. There is only health.",1,1
5721,105722.0,My New Whats App No is giving Me so much Peace. This Social Media shit is a source of Depression for Me. Hate chasing people on them. I really do!!!,1,1
5734,105735.0,my regular depression plus my seasonal depression are really fucking me up right now fam ü•∫,1,1
5879,105880.0,"no drug, religion or EDM festival will ever match the emotional experience of playing the level ‚Äú343 Guilty Spark‚Äù for the first time and i think that‚Äôs basically why i have depression",1,1
5937,105938.0,"No, I absolutely don‚Äôt want to do anything at all cos depression but ofc I‚Äôll be getting loads of DMs asking me why I‚Äôm not making porn. Idk Dave, wanna see me wank and cry at the same time???",1,1
6012,106013.0,Now its just depression  https://twitter.com/_katsume_/status/777418484510629888¬†‚Ä¶,1,1
6059,106060.0,"oh i know, i suffer from major depression as well - and trust me i wasn't trying to trivialize it but i'm genuinely so sorry if it came across that way ‚ô•Ô∏è",1,1
6115,106116.0,omg I‚Äôm trying to get prescribed too I‚Äôm doing online classes and LITERALLY I can‚Äôt focus for more than 10 minutes at a time it‚Äôs HELL. my therapist is like yeah hun you should try Vyvanse and my psych is like hmm maybe it‚Äôs ur depression. im depressed bc ADHD ruining my life?!?!,1,1
6193,106194.0,only reason I‚Äôm not is bc my hair is finally long:( but it‚Äôs so tangled from depression and anxiety keeping me from taking care of it,1,1
6198,106199.0,ooh tge depression hitting hard tonight,1,1
6241,106242.0,P.S. it‚Äôs not that hard to ‚Äúdiagnose urself‚Äù w depression it‚Äôs literally not special or uncommon like hellooo if u never stop being miserable & you‚Äôve tried everything then üòêUm Ya Lol. Anyways doesn‚Äôt really matter but in the context of invalidating ppl w/o a diagnosis it does,1,1
6278,106279.0,"People don't seem to get how resenting and feeling hateful towards everyone who ""needs"" you  is a COMMON symptom of severe depression... but I guess it's more fun to complain about bad fathers than consider mental illness",1,1
6317,106318.0,"phew it took me much hours thinking about the conversation my mom, aunt, and I had earlier... She lost her son because of depression.",1,1
6572,106573.0,Rip to your depression mix. I'm different.  https://youtu.be/zns8Y8phigk¬†,1,1
6615,106616.0,Same as depression and anxiety,1,1
6847,106848.0,Skype Therapy ‚Äì The New Psychotherapy for #Anxiety & #Depression  https://pdmstrong.wordpress.com/skype-therapy-the-new-psychotherapy-for-anxiety-depression/¬†‚Ä¶¬†#anxietytherapy #depressiontreatment,1,1
6852,106853.0,Skype therapy sessions using mindfulness. Online #Mindfulness Therapy for the treatment of #Anxiety & #Depression. Psychotherapy without drugs. Contact me to learn more. Watch :  https://eloke.nz/16AQ¬† pic.twitter.com/Ge7AgNS2Tx,1,1
6962,106963.0,Someone I know very closely is dealing with #depression. I find myself incapable of responding beyond empathy and compassion. Is there anything more I can do? #Suggestions would really help ,1,1
7001,107002.0,Sooooo... i procrastinated my entire semester and i have 1000 things dUD AND i have 100 events with friends this week AND MY SEASONAL DEPRESSION IS KICKING IN WHY DID I THINK THIS WAS A GOOD IDEA,1,1
7206,107207.0,"Thank you for all your encouragement. For always saying ""Be your own Jhanarie"".",1,1
7338,107339.0,The beginning of a depression episode.,1,1
7347,107348.0,The BUWA Depression Awareness Campaign's mission is to encourage people to talk to someone about their depression..... ,1,1
7387,107388.0,"The depresssed stay depressed because, they choose to continue hurting not only themselves but... others too! Depression comes in all shapes and sizes. Depression doesn‚Äôt have a place because, the place that‚Äôs their for them. They always seek someone better. Better isn‚Äôt always.",1,1
7392,107393.0,The end of the semester depression is hitting tonight. Damn,1,1
7554,107555.0,Them: why you always on social media.. why you keep making tiktok videos???,1,1
7571,107572.0,There are 2 kinds of depression.,1,1
7643,107644.0,Think it's bipolar or depression?,1,1
7662,107663.0,This can result in depression or isolation. Sometimes people result to things like alcohol and drugs rather than reaching out to someone to talk about their feelings  pic.twitter.com/8BekquNOkZ,1,1
7671,107672.0,This cured my depression  https://twitter.com/conangray/status/1201581335602769922¬†‚Ä¶,1,1
7728,107729.0,This is it. This is the last thing I needed  to see to fall into total depression.  https://twitter.com/nourraim/status/1201461725079449602¬†‚Ä¶,1,1
7747,107748.0,This is stupidity and not depression...........  She's looking for top notch fame....... This is clout clout clout,1,1
7760,107761.0,THIS IS THE TWEET. MY DEPRESSION? CURED. ANXIETY??? DONT KNOW HER ANYMORE. THIS IS THE CUTEST SHIT  https://twitter.com/underscoregeoff/status/1201196366397149191¬†‚Ä¶,1,1
7772,107773.0,This isn't even depression,1,1
7790,107791.0,This photo is the cause of my depression  pic.twitter.com/sPqaX2cnjp,1,1
7899,107900.0,To do what,1,1
7913,107914.0,"Today I actually managed to go in a big shop. Yes it was with my mum. Yes I dodged everyone and ran away when people were near. Yes the anxiety was crippling in the queue but I did it. Headphones & loud music + hood up, for the win. ",1,1
7922,107923.0,"Today is Women‚Äôs Brain Health day. To spread awareness on research bias, prevention and more about the disease. Almost 70% of people with Alzheimer‚Äôs are women. And women suffer from depression and stroke twice as‚Ä¶  https://www.instagram.com/p/B5kUwo5Ho2G/?igshid=14260yrte7olo¬†‚Ä¶",1,1
8008,108009.0,Tum bhi nhi gye na depression me gautam ke jaiseüôÇüòÇ,1,1
8024,108025.0,Tweets like these are really dangerously bogus. These kinds of tweets may push people who are trying without success to illegality or depression.  https://twitter.com/UnclePamilerin/status/1201217158484762627¬†‚Ä¶,1,1
8043,108044.0,U know that feeling when ur depressed but when u saw the person u love and that person loves u back ,1,1
8101,108102.0,Vaporub can cure anything including depression üòÇ,1,1
8248,108249.0,Went to the doctor today to talk about my depression and I‚Äôve successfully lost 6 pounds thanks to my anxiety! (AKA: Never having an appetite!) üòé,1,1
8263,108264.0,What do we want? More depression memes! When do we want them? Now  pic.twitter.com/K4uyDExq5j,1,1
8351,108352.0,When you hit that depression phase again and he ask you what he could do to help/ make you feel better >>,1,1
8477,108478.0,Working weekends tied to increased depression risk: study  https://news.abs-cbn.com/life/03/14/19/working-weekends-tied-to-increased-depression-risk-study¬†‚Ä¶,1,1
8585,108586.0,yeah definitely can‚Äôt be sad because you have depression or anything üò§,1,1
8592,108593.0,"Yeah I was on Fluoxetine for a while about 2 years ago, and it helped my anxiety too but it had no effect on my depression so I stopped taking it. It is difficult trying to get help for this stuff innit. Thank you ‚ù§Ô∏è",1,1
8615,108616.0,"Yep, and with the taboos wearing off ‚Äòmilder‚Äô psychedelics Like ketamine, mdma etc have also been used as treatment for depression, ptsd etc. this space is only going to get wilder / more interesting",1,1
8668,108669.0,yo this depression shit really be fw yo head,1,1
8709,108710.0,"You could try just writing even when you feel like it‚Äôs garbage. That‚Äôs the advice I always hear, because at least stuff is happening. Otherwise, lack of motivation could be due to depression. In that case, I‚Äôd advise visiting a doc. ‚ù§Ô∏è",1,1
8734,108735.0,You know what fuck u guys ur the exact reason I went to the hospital for trying to kill myself it's people like u are the reason I have depression,1,1
8881,220.0,@comeagainjen http://twitpic.com/2y2lx - http://www.youtube.com/watch?v=zoGfqvh2ME8 ,1,1
9008,13465.0,"@WayneNH I wish I wasn't following you so I could be your 1,000 follower, Wayne ",0,1
9050,19260.0,@LodurZJ Well pizza... but that is good too! ,0,1
9079,21696.0,@LadyMelancon Hey there! ,0,1
9133,28027.0,@hannahvictorius we should! We'll organise it properly next time. Glad you enjoyed it ,0,1
9155,29503.0,Champagne breakfast  Bubbles went straight to my head tho lol,0,1
9198,34021.0,"@Reddic if you won't miss a Star Trek movie, then you ARE a Trekkie just not a cross-dressing/conference going type  lmbo",0,1
9252,39870.0,@Jenna_Glass ahhah i know!!!! i want her to follow me toooo ,0,1
9318,45213.0,"@rmilana I have been doing great, thanks! How are things at your end? ",0,1
9322,45560.0,@redheadlori @pcjbfan Finally broke down and got tix yesterday...So I'll be seein' ya's in Tampa fo sho! Can't wait til August!!! ,0,1
9326,46240.0,@Lironster Mmmm  I ate some yesterday.,0,1
9362,50517.0,@pursebuzz..G-Mornin' Pursebuzz..! Coffee..? ,0,1
9365,50863.0,was woken up by a lovely phone call from the boy.  what a great start to my monday. i have a feeling it'll be great.,0,1
9462,59700.0,"hanging with my best friend, giving each other makeovers, and watching Camp Rock ",0,1
9501,64245.0,@whatcaitlindid long time no twitter  on monday if your not busy could you help me revise maths (as your such a good teacher and all) xoxo,0,1
9512,65803.0,@londicreations Hi Londi! Thanks for the compliment  Love your work too!,0,1
9565,71692.0,"@hotsports Man, that would be awesome, I bet the kids would get along famously! Maybe one day that will happen ",0,1
9581,73711.0,@heartoffire okay doke  u with neil?,0,1
9752,89075.0,hello everybody !                 ,0,1
9787,92312.0,"Drove to tucker's. Chillin here  Oh and @MadisonWilde, I'm not THAT crazy haha, only a little. Ilybff4l&lt;3",0,1
9789,92393.0,Podcast Episode 8 uploading as i type  subscribe please www.RandolphStProductions.mypodcast.com thank you,0,1
9807,94157.0,"@xitsmatt Aww thanks, even if you dont..just for saying such a lovely thing ",0,1
9889,102700.0,@JohnhampsonUK Oh very nice! I hope you have a wonderfully relaxing day! ,0,1
9926,106161.0,@SpyCamsSpyEquip Thanks for the follow ,0,1
9939,107648.0,@riandawson will do ,0,1
9991,112091.0,Just got home from a wonderful day with my family!!  I had so much fun today. ,0,1
10024,115632.0,assumes it wasnt so taboo to start an email with &quot;LOL&quot; considering that the reply it got started with &quot;ROFL. PWN3D.&quot; I love the internet! ,0,1
10029,115865.0,Happy Mothers day to all the Mothers in my life ,0,1
10054,118308.0,Just downloaded a podcast @ the bus stop ,0,1
10061,119047.0,my miss doesn't read my tweets so she wouldn't know that the emo guy won #dsds ,0,1
10103,124366.0,@warren83 Hey there  How are you?,0,1
10211,135384.0,"@Loviin_lyfe well, I think I'm going to focus on school and career and invest in a good good DEVICE lol.... (TMI?)  if so... Good !",0,1
10383,153540.0,"I wish I could sing!  I try but just don't have the pipes.  Think Justin, Martina or Reba would give me lessons?? ",0,1
10400,154790.0,@tom_ra a good relaxing sunday and you'll be fine! ,0,1
10408,155401.0,@DavidArchie i hope you'll had ur concert again here in the philippine. i hope u had a great time staying here in the phil . ,0,1
10428,156498.0,"Atlantis &amp; Hubble current location now is above Indonesia. Wave your hand guys, wave!  #fb",0,1
10466,160322.0,is mega better thanks to kayla ,0,1
10532,167244.0,"Just left starbucks with liya, brandon, AND nik ",0,1
10557,169566.0,These headphones kick ass at blocking out outer noise! ,0,1
10578,171270.0,give some love to @racewayreport ,0,1
10581,171560.0,@hhavenwood  That response fits perfectly for the &quot;Diva&quot; combo-archetype BTW..,0,1
10660,180586.0,@schwern Epic.  Donut Bread Pudding sounds disgustingly good. ,0,1
10684,183972.0,@mpesce can i be in the studio audience- promise to behave! ,0,1
10689,184508.0,"@scenariogirl You want a Speyside or Highland single malt - Cragganmore, Oban being two good options ",0,1
10699,185713.0,#3turnoffwords I'm wearing tights! ,0,1
10707,186421.0,@AKGovSarahPalin Have a great week Sarah ,0,1
10749,191649.0,Tyler said &quot;diaper&quot; today while pointing to the diaper box! Too cute ,0,1
10777,194570.0,"@garth ah yes, the robotics one with Richard Prior.... ",0,1
10811,197290.0,"@Leafybear lol Working for Born Free  we offer animal adoptions, membership etc and need to expand  our operation lol ",0,1
10823,198525.0,"@allwithani *Consolation, haha. I missed all the french kids today. ",0,1
10853,202823.0,http://twitpic.com/5ohy5 - @bencoder Hello bc  it's a meta-game. Watch this space ;D,0,1
10894,206696.0,@justinchon Hi Justin ! You come in London in July ? Greaaat !  I hope you come with Andy ! haha,0,1
10968,214660.0,"@TheAnand There's one on the 20th in Mumbai. I should be there for that, hopefully ",0,1
11085,225359.0,@TsukinoHikari20 Both! Obviously ,0,1
11093,225938.0,following @jessicaclaire and @jsnorwood 's twitter war = hilarious!  ,0,1
11205,237594.0,"@herlastdownfall aw, well thank you!  it's very nice of you to say",0,1
11228,240072.0,back down to 130 lbs... dieting is perhaps working? fingers crossed! must lose 10 pounds and gain a 6 pack by june 29! ,0,1
11333,250690.0,@Jason_Pollock I think they heard you. ,0,1
11358,253550.0,@MihaiDragan wow! nu stiam ca citesti amdoar18ani.ro ,0,1
11378,254721.0,@eli_36 ughh I'm jealous! Bring me some ,0,1
11379,255039.0,@highheelznkickz its ok; the 1st step is deniallll  LOL,0,1
11388,256041.0,I got a new Tattoo yesterday it is a mama lion and her 3 cubs I love it represents and my kids soooooooooooooo cute    I am so happy,0,1
11417,259142.0,"@geekgrrl You just come across as a real Hank, Senior kinda grrl. Tears in beers, lonesome highways, and all that...  ",0,1
11440,261036.0,#liesgirlstell yea babii i luv u long time ,0,1
11490,268216.0,"@TimCAD Good god man, are your hands ok?? ",0,1
11523,271083.0,@NipseyHussle For sure! I'm following you now too  Enjoy your night!,0,1
11570,275020.0,Mmmm. I think that was my first beer in six months. Worth waiting for ,0,1
11643,282361.0,@ebunce haha you have the same name as me lol. ,0,1
11687,287327.0,@pauladeasis Happy birthday Paula! Have a good one. ,0,1
11818,299184.0,"having dinner soon, trying to finish up my june holidays eng hw. o lvl mt on monday. ",0,1
11851,302596.0,Could not resist that packet of 7D Dried Mangoes. Hello yellow fellow ,0,1
11866,303751.0,Childrens theater show ,0,1
11867,303799.0,"13 miles, 100 sit-ups. Good start to the day! ",0,1
11872,304246.0,Helping to run a fundraiser for Relay for Life today! ,0,1
11921,308784.0,@ishanibutalia Haha. Have fun in Kashmir ,0,1
11929,309782.0,"sau saal jiyo tum jaan meri  http://bit.ly/Pj27i  the lovely voice of Dilraj Kaur, sounds so much like Ashaji.. ",0,1
12110,329054.0,@skylinesource awwww..you're so sweet. ,0,1
12146,332405.0,@BayouBengal56 I am not but I am sure my dad and sister are! ,0,1
12179,335712.0,Just finished a makeshift photoshoot. Dog was acting crazyy LETS GO ORLANDO MAGIC!!! ,0,1
12269,344605.0,@vilmaa How's da hangover? hehe ,0,1
12309,349331.0,@cheth thanks! love elvis ,0,1
12467,363677.0,@tysonritteraar  good morning. not feeling so great - up til 3 watching Abandon play. Amazing gig though ,0,1
12510,367011.0,thanks @aoibhneas .. like this swing  ? http://blip.fm/~7dd0x,0,1
12520,367895.0,Mother's Day in Sweden today! ,0,1
12582,375488.0,@dantheshive oh hugging dreams are the very best kind! you wake up in such a good mood ,0,1
12610,378133.0,Emily is confused over food. I love her ,0,1
12634,380687.0,NEW SHOES!!!  thanks Lizzie!!! http://twitpic.com/6ccj4,0,1
12640,381273.0,Resting from Rocking Space Jam with Atomic Babies- Udachi and us ,0,1
12655,382565.0,OK going to get in the shower...I need to wake up from last night's excursions...   be back soon!,0,1
12686,385439.0,Beautiful day ,0,1
12771,393276.0,@cjlambert yeh im not so much into his 'hotness' as his embarrassing of Mr English's decision to irrationally stop saving for super ,0,1
12830,400552.0,"mtv movie awards tonite!!! new moon trailer premieres  whoo,excited!",0,1
12842,401580.0,Ding Alil Ryming Thinking Nd Writing  Music s the best ting ever ,0,1
12875,404868.0,"@mrskutcher Have you ever gotten a tarot reading?  I'd love to read for you sometime.  Thanks so much for your work, btw.    Best!",0,1
12913,408664.0,italy today!  no tweets till saturday 6th xxxxxxxxxxxxxxxxxxxxxxxxxxxxxxxxxxxxxxxxxxxxxxxxxxxxxxxxxxxxxxxxxxxxxxxxxxxxxxxxxxxxxxxxxxxxxxx,0,1
13001,417355.0,Getting ready for a picnic today. The sun is out! Whoopee. ,0,1
13167,432130.0,@JD_2020 i have placed my votes mainly for CoD WaW totally addictive game i was more fifa but it soon wore off so CoD it is ,0,1
13200,435139.0,Good Morning @weluvsoccer ,0,1
13276,443200.0,So excited about her upcoming birthday. I even dreamed about sushi last night! ,0,1
13326,447478.0,Ah. Mike's Hard Lemonade. The cure for what ails you. ,0,1
13441,459654.0,@thebeatfreaks thank you so much for coming to hawaii. have fun in guam ,0,1
13538,469317.0,late night conversations and cute boys on freeways make my summer nights  ,0,1
13551,470266.0,"wow, today was an interesting day. tommrow isnt going to be any better.im sore from lifting. yea so txt me im going to be moving all day! ",0,1
13710,484517.0,"you become a habbit, the more I consume the more I gotta have it ",0,1
13711,484661.0,@expressivemsr my parents r more than happy !! it was just the rest of family wondering about me.my folks r too cool !! left it all on me ,0,1
13722,486300.0,Left 4 Dead 2... Can't wait... Modern Warfare 2.. Can't wait... Infact all the new games... Can't wait ,0,1
13818,495415.0,I love my hair colour. Never going back black. Oh... and I love the road I'm on ,0,1
13886,500879.0,Screw Billy Mitchell!! Go Steve Wiebe.  http://bit.ly/165sST Currently almost halfway to the DK world record.,0,1
13908,503057.0,@logansutch I know Bruce follows Danny..so cool!  It'd awsome if we got him to sing with Mcfly! I know... really want to buy it! xx,0,1
13921,504509.0,"At Guess shooping, Carly the salesgirl has lots of questions, mostly ones that are actually statements ",0,1
13934,505454.0,is getting ready to eat salsa and chips! bless God!  http://plurk.com/p/xzsco,0,1
13950,507094.0,"@HipChickZine I want those babycake cupcakes! Vegan, gluten free and yummy? Perfect for me! ",0,1
13971,508875.0,Nothing better than being on a boat with @marcocardenas. Except maybe making a whole lake trip of it w @gansargirl and @jasenlittle. ,0,1
14025,514346.0,I finnished!  from curly to straight in just 1 hr and a half!! yeeea buddy!,0,1
14027,514523.0,@jshe  please do so. listen to some music to relax and rest a while *Smiles*,0,1
14078,518667.0,@cathybaron There is an article about you in the Leader-News today! ,0,1
14143,524702.0,"i'm not here with the intent of being adored or praised.. i appreciate all u say, honestly  even if i'm not calling for it..",0,1
14219,531776.0,"@Winsorandnewt so are you of the hermit variety, too? thanks for the rt of the rt ",0,1
14223,532013.0,Good morning everyone!  It is such a beautiful day here in New England!  ,0,1
14278,538778.0,Q&amp;A today with Denis Leary today!!! Thanks Katie ,0,1
14306,541722.0,It√¢‚Ç¨‚Ñ¢s always a good idea to match your umbrella w/your outfit  http://bit.ly/tgBM9,0,1
14310,542621.0,I had gal bladder surgery the day before yesterday and got back yesterday! Its getting better by the day! ,0,1
14363,548367.0,- @katherineholden Thanks K! Here's hoping! Pretty nervous though... ,0,1
14378,549940.0,"@Kaijah Thanks, I appreciate your thoughts and comments on what I post, much love, peace, joy and blessings to you and yours. (HUGS) ",0,1
14394,551225.0,@ddlovato omggggg you look GORGEOUS!!! love it ,0,1
14533,565865.0,@cscrima white truffle popcorn?...sounds decadent. I hope it's yummy. ,0,1
14544,566710.0,@Bones_Fans Woo Hoo!! Limits are cracking all over the world ,0,1
14649,576466.0,Can i have some tonic with my vodka?? Ahh.... I love Cruz!! ,0,1
14735,584410.0,@laylakayleigh because there sweet. just like you! ,0,1
14807,592152.0,"yes, camera battery works ",0,1
14846,595814.0,@DeLoresPressley We need to coordinate a massive TweetUp for all speakers on twitter (maybe motivation for more to get on board!) ,0,1
14901,601667.0,Wicked - Because I knew you ,0,1
14917,603360.0,"There's nowhere left to hide, in no one to confide, the truth burns deep inside, and it will never die. Muse, you make my day ",0,1
14960,606771.0,Happy two year anniversary to the best gurrfrann in the whole world ,0,1
15030,612381.0,"@seekzpeace @GoldyMom O.k., sounds good, I will have the horses ready in my stable... ",0,1
15073,616221.0,We have the Cookie Puss!! We havethe Cookie Puss!! His hair is blue! Repeat: his hair is blue! ,0,1
15091,617936.0,"is embarking on a five day weekend! Beaches, ferries, and fun! Life is good! ",0,1
15097,618331.0,@ChibiAngel86 cellphone charms? PIX PLZ ,0,1
15110,619839.0,"(via @UncleRUSH) Keep smiling! remember when people dissapoint u .. Its your fault, learn to love unconditionally it hurts less ",0,1
15169,625901.0,Goodnight Twitter-peeps. As @lostgirl66 would say - &quot;Dream Dangerously!&quot; ,0,1
15238,632127.0,4-0 ...okay really the Penguins must so be humiliated... ,0,1
15244,633011.0,hmmmm..What are you doing?...im singing a very awesome song  and ima go see a movie called...TERMINATOR SALVATION!!!!!!! OH YEA! BITCH! xD,0,1
15273,636798.0,I'm enjoying collecting all these demo versions of the songs from Brandy's album. ,0,1
15410,651001.0,"@NicoleVSanchez Sounds like fun, have a wonderful day ",0,1
15476,657015.0,i'm submitting my site into directories and also listening to Natasha Bedingfield Un written ,0,1
15478,657060.0,I bet that Steve Jobs will make a cameo tomorrow through a videoconf with the new Iphone video - he dicho ,0,1
15545,662719.0,Pebbles was afraid of the Thunder and Lightning this morning. we aint had that for years! wow! new picture/s coming soon ,0,1
15552,663216.0,"Currently listening to The Wolves by Bon Iver, very good.... ",0,1
15575,665351.0,Listening to The Fray ,0,1
15614,668511.0,@mileycyrus hi miley... The song &quot;before the storm&quot; is incredible  i love it... Congratulations ;),0,1
15621,669426.0,Im well bored what can i do .. i aint been on here in ages ,0,1
15661,673803.0,@kriskupn Yay! That was the deal of the century. And @overstock is on Twitter. ,0,1
15680,675945.0,"@Lego_Pizza_Man my brazilian-best friend is from Rio de Janeiro,too! I'm from Latina,near Rome ",0,1
15737,681400.0,@UnderwaterLama actually at least it will be cool. We did a hike yesterday and it felt good to have a little shade ,0,1
15772,684902.0,@mileycyrus it would be very nice and important for me when your answer my question (backroundsinger) ,0,1
15801,688784.0,@xrosieeeexx how about a microwave?that's about as random as it gets (joke) ,0,1
15834,691811.0,@Ms_Shellow ooo oo or they can drink a cup of bleach ,0,1
15845,692339.0,Woot woot!! Haha gonna go to the movies again I'll be on my uncles iPhone ,0,1
15860,693563.0,@Flickie well the conference is 9pm so thats 5 here  will try my best to keep u informed hehe,0,1
15999,709651.0,"going to bed, good night folks ",0,1
16117,722904.0,@blobyblo wear a sandwich board that says &quot;FOLLOW ME ON TWITTER&quot; and walk around seoul ,0,1
16390,750108.0,YAY EXAMS ,0,1
16431,753718.0,Only reason i joined is to moderate polyghost ,0,1
16455,756398.0,@fitbet me too  We feel such gratitude to our yoga teachers .... and our students here in Las Vegas. namaste,0,1
16468,757720.0,... decided to create a new screen name... its super random ,0,1
16534,764579.0,http://twitpic.com/7iope - @kevinkallstrom on da web cam  dunno why this came out so little,0,1
16627,775127.0,is looking forward to a hot day and helping and watching chloe's sports day  x x x,0,1
16634,775624.0,"Listening to Ne-YO closer, still a good song! ",0,1
16702,781951.0,"habis lunch sm illa,fifi,malche.. So happy to see them..  http://myloc.me/40CP",0,1
16784,790173.0,@WoWDawgs As long as the diarhea is gone...  Sure.,0,1
16796,791311.0,@HexagonStar @GamingYourWay Times New Roman FTW! I showed it to the artist and he was like &quot;what the fuck happened to that?!!&quot; ,0,1
16829,794494.0,"@JulieLech oh i hate that! have you heard Dane Cook's kind of old bit about being late? i highly recommend it, everyone can relate ",0,1
16981,800102.0,"actual picture of my anxiety, depression, and ocd when i'm in the middle of finals  pic.twitter.com/Vg5VZqfSCJ",1,1
16988,800109.0,Just took the biggest depression nap of my life,1,1
17032,800153.0,Can Negative Energy from a Paranormal Investigation Lead to Depression?   http://bit.ly/1ctZz6L√Ç¬† pic.twitter.com/xyTBNutDC4,1,1
17041,800162.0,Check out these McKee Depression Glass Salt & Pepper Shakers Delphite Blue S&Ps Aluminum Lids   https://www.bonanza.com/listings/583048263√Ç¬†√¢¬Ä¬¶,1,1
17073,800194.0,Depression hit me like a truck part.2 <Emoji: Loudly crying face>,1,1
17081,800202.0,"@lifebiomedguru @dkegel Working theory regarding severe injuries after 2nd HPV vax.  1st one inflammed immune system.  2nd one, along with meningitis vax, sends them over the cliff.  Just too much.  Many of them developed acute depression after 1st HPV vax.",1,1
17097,800218.0,@AydinPaladin @vadimnewquist @Toxic_Fem @WaitImCurious You got the quote wrong first of all and secondly where were all of you assholes when her and her ilk pushed a person who im glad called me a friend into depression? Where was your moralist boner then?,1,1
17107,800228.0,Some of those that are hurting are in leadership roles themselves. #Depression isn't isolated to our employees.  pic.twitter.com/tZknHL1q5y,1,1
17115,800236.0,the worst thing about depression is that you'll always feel empty or alone regardless of anything.,1,1
17147,800268.0,depression nap incoming gn,1,1
17159,800280.0,@witxhcraft__ aye my depression was that bad i couldn't improve it through counselling so i had to start taking fluoxetine (which to my relief has worked wonders and i'm a much better person for it),1,1
17178,800299.0,Depression is fun!,1,1
17186,800307.0,"I've got a bad case of the 3:00 am guilts ,you know, when you lie in bed awake and replay all those things you didn't do right? Because, as we all know, nothing solves insomnia like a nice warm glass of regret, depression and self-loathing.",1,1
17312,800433.0,"Recently fallen off waking up and going for a run everyday. I've let the anxiety & depression take the wheel. While sitting in my thoughts @ZacharyLevi tweet response popped in about how great exercise is for anxiety and mental well being. So I got up and ran, I ran so far away.",1,1
17388,800509.0,Maybe depression is right. Maybe it really would be better if I had never been born.,1,1
17586,800707.0,Saturday morning after r*ve and m*vment class I was so depressed I just wanted to be alone. Idk if actual depression or sleep debt and hungry maybe,1,1
17649,800770.0,"Mom's depression tied to kids' emotional, intellectual development  https://ift.tt/2HtVZCE√Ç¬†",1,1
17672,800793.0,"What were you taught in school? Have you ever independently researched the Great Depression, to prove or disprove what you were taught?  https://www.facebook.com/VPAofTX/posts/1912767898797971√Ç¬†√¢¬Ä¬¶",1,1
17750,800871.0,my depression be having me out here hating everyone and everything. shit ain't fun,1,1
17893,801014.0,I've been fighting severe depression and extreme anxiety for about 5-6 years now and anyone close to me knows the lengths I've went to escape it. While I'm still fighting I will say I feel myself coming out On The winning end and a lot of that has to do with those around me <Emoji: Heavy red heart>,1,1
17900,801021.0,"I'm depressed , depression always attacks me , I don't feel ok everyday, I'm just fighting over my depression, i was not supposed to be happy today , people now a days doesn't care about how people feels",1,1
17930,801051.0,@JaredLeto Not when you suffer with depression  pic.twitter.com/jXfGCxyjxr,1,1
18009,801130.0,Exercise and Depression: How Sweating Is Good for Your Mental Health  https://ift.tt/2Hwqu73√Ç¬†,1,1
18024,801145.0,Thankful for the people in my life helping me get through this depression. I don't know what I would do without this kind of love and support,1,1
18076,801197.0,Check out a fun #history podcast! Because there's nothing sexier than the Great Depression.  https://twitter.com/HistoryInHinds1/status/988941397301571584√Ç¬†√¢¬Ä¬¶,1,1
18114,801235.0,Depression kills yo,1,1
18141,801262.0,What to Do if a Minor Illness Worsens Depression Symptoms  https://buff.ly/2vmwPjK√Ç¬†,1,1
18165,801286.0,How exercising can slash the risk of depression  https://nyp.st/2vGw2Kq√Ç¬† via @nypost,1,1
18169,801290.0,this movie just worsened my depression tbh :) i wanna die :)  pic.twitter.com/fygUwhvYNh,1,1
18224,801345.0,my shoes have wheels because the depression doesn't stop,1,1
18237,801358.0,Thuli Madonsela's daughter speaks out about her struggle with depression in heartfelt Facebook post  https://www.w24.co.za/Lifestyle/thuli-madonselas-daughter-speaks-out-about-her-struggle-with-depression-in-heartfelt-facebook-post-20180425√Ç¬†√¢¬Ä¬¶ pic.twitter.com/Jyr9EoMmCM,1,1
18370,801491.0,Physical Activity and Incident Depression: A Meta-Analysis of Prospective Cohort Studies  https://ajp.psychiatryonline.org/doi/10.1176/appi.ajp.2018.17111194√Ç¬†√¢¬Ä¬¶ Including some familiar names!! And some media: https://news.sky.com/story/exercising-regularly-cuts-risk-of-depression-by-16-study-suggests-11346264√Ç¬†√¢¬Ä¬¶,1,1
18447,801568.0,"Reminiscing those past months. I can't imagine kung pano ko nalabanan yung anxiety/depression ko, I can't imagine that i survived. God is always on your side no matter what <Emoji: Up pointing index (light skin tone)><Emoji: Person with folded hands (light skin tone)>",1,1
18526,801647.0,@ErinMayeQuade Who's going to do the background checks? Suppose you can't get a gun because of your depression or autism or whatever. Universally ban weapons of war for all people.,1,1
18599,801720.0,Deepika talks about her days of depression at the TIME 110 GALA #indiaforums,1,1
18634,801755.0,@TribeTwelve Yea...I've got depression and anxiety,1,1
18642,801763.0,Study finds exercise may lower risk of depression  https://www.wellnessdestinationindia.com/study-finds-exercise-may-lower-risk-of-depression/√Ç¬†√¢¬Ä¬¶,1,1
18705,801826.0,"That's the thing about depression: A human being can survive almost anything, as long as she sees the...  https://tmblr.co/ZaYZ3y2XOtPSV√Ç¬†",1,1
18998,802119.0,Cultivate supportive relationships in order to end #depression,1,1
19018,802139.0,@SunixRS depression,1,1
19083,802204.0,I've been taking naps at like 6 or 7 and sleeping clear through the night lately. Never thought I'd say it but thank god for depression <Emoji: Face with tears of joy>,1,1
19090,802211.0,Deepika Padukone raises a toast to those who survived depression - ANI News:  http://youtu.be/9q356mvPw8Q?a√Ç¬† via @YouTube,1,1
19148,802269.0,is depression considered a terminal illness if someone commits suicide,1,1
19173,802294.0,"Fuck depression, it should honestly just kill itself already",1,1
